{
	"info": {
		"name": "Bizintro API",
		"_postman_id": "d6e70c4c-d48a-baf9-b6d2-83eae7bef58a",
		"description": "",
		"schema": "https://schema.getpostman.com/json/collection/v2.0.0/collection.json"
	},
	"item": [
		{
			"name": "Account",
			"description": "",
			"item": [
				{
					"name": "Account - Signup",
					"request": {
						"method": "POST",
						"header": [
							{
								"key": "Content-Type",
								"value": "application/json"
							}
						],
						"body": {
							"mode": "raw",
							"raw": "{\n  \"email\":\"mike@nortoncrew.com\",\n  \"password\":\"pass1234\",\n  \"first_name\":\"Mike\",\n  \"last_name\":\"Norton\",\n  \"timezone\":\"America/New_York\"\n}"
						},
						"url": "https://{{domain}}:{{port}}/account/signup",
						"description": "This is the method used to sign a user up using Username and Password."
					},
					"response": []
				},
				{
					"name": "Account - Login from Google",
					"request": {
						"method": "POST",
						"header": [],
						"body": {
							"mode": "formdata",
							"formdata": [
								{
									"key": "code",
									"value": "",
									"type": "text",
									"description": "Code you got from Google"
								},
								{
									"key": "clientId",
									"value": "613941208128.apps.googleusercontent.com",
									"type": "text",
									"description": "The Google App ID"
								},
								{
									"key": "redirectUri",
									"value": "",
									"type": "text",
									"description": "Leave empty"
								}
							]
						},
						"url": "https://{{domain}}:{{port}}/api/login/social/token_user/google-oauth2",
						"description": "This is the method used to take a social login/signup and pass into Bizintro for a Token."
					},
					"response": []
				},
				{
					"name": "Account - Login with Password",
					"request": {
						"method": "POST",
						"header": [
							{
								"key": "Content-Type",
								"value": "application/json"
							}
						],
						"body": {
							"mode": "raw",
							"raw": "{\n  \"username\": \"mike@nortoncrew.com\",\n  \"password\": \"pass1234\"\n}\n"
						},
						"url": "https://{{domain}}:{{port}}/account/login",
						"description": "This is the method used to login with username and password."
					},
					"response": []
				},
				{
					"name": "Account - AutoLogin",
					"request": {
						"method": "POST",
						"header": [
							{
								"key": "Content-Type",
								"value": "application/json"
							}
						],
						"body": {
							"mode": "raw",
							"raw": "{\n  \"uuid\": \"\",\n  \"type\": \"\"\n}"
						},
						"url": "https://{{domain}}:{{port}}/account/autosignuporlogin",
						"description": "This is used when you need to automatically log a user in (or create them a user) when they are coming from an email link."
					},
					"response": []
				},
				{
					"name": "Account - PreSignup",
					"request": {
						"method": "POST",
						"header": [
							{
								"key": "Content-Type",
								"value": "application/json"
							}
						],
						"body": {
							"mode": "raw",
							"raw": "{\n  \"email\":\"mike+intercom5@nortoncrew.com\"\n}"
						},
						"url": "https://{{domain}}:{{port}}/account/presignup",
						"description": "This is the method used to add a user to our PreSignup list."
					},
					"response": []
				}
			]
		},
		{
			"name": "ApptRequest",
			"description": "",
			"item": [
				{
					"name": "ApptRequest - Create",
					"request": {
						"method": "POST",
						"header": [
							{
								"key": "Authorization",
								"value": "Token {{token}}"
							},
							{
								"key": "Content-Type",
								"value": "application/json"
							}
						],
						"body": {
							"mode": "raw",
							"raw": "{\n  \"contact_id\": 686,\n  \"recipient_email\": \"mike+3@nortoncrew.com\",\n  \"appt_length\": 30,\n  \"intro_uuid\": \"\",\n  \"appt_type\": \"phone\",\n  \"location\": \"111-222-3333\",\n  \"appt_title\": \"Meeting between Mike and Steve\",\n  \"message\": \"This is the message for recipient A\",\n  \"timeslots_available\": \"Tue Jun 27 2017 09:30:00 GMT+0000_Tue Jun 27 2017 12:00:00 GMT+0000,Thu Jun 29 2017 11:00:00 GMT+0000_Thu Jun 29 2017 12:30:00 GMT+0000,Wed Jun 28 2017 11:30:00 GMT+0000_Wed Jun 28 2017 12:30:00 GMT+0000\"\n}\n"
						},
						"url": "https://{{domain}}:{{port}}/appt_request/",
						"description": "This is the method to create an Appt Request."
					},
					"response": []
				},
				{
					"name": "ApptRequest - Accept",
					"request": {
						"method": "POST",
						"header": [
							{
								"key": "Authorization",
								"value": "Token {{token}}"
							},
							{
								"key": "Content-Type",
								"value": "application/json"
							}
						],
						"body": {
							"mode": "raw",
							"raw": "{\n  \"contact_id\": 686,\n  \"recipient_email\": \"mike+3@nortoncrew.com\",\n  \"appt_length\": 30,\n  \"intro_uuid\": \"\",\n  \"appt_type\": \"phone\",\n  \"location\": \"111-222-3333\",\n  \"appt_title\": \"Meeting between Mike and Steve\",\n  \"message\": \"This is the message for recipient A\",\n  \"timeslots_available\": \"Tue Jun 27 2017 09:30:00 GMT+0000_Tue Jun 27 2017 12:00:00 GMT+0000,Thu Jun 29 2017 11:00:00 GMT+0000_Thu Jun 29 2017 12:30:00 GMT+0000,Wed Jun 28 2017 11:30:00 GMT+0000_Wed Jun 28 2017 12:30:00 GMT+0000\"\n}\n"
						},
						"url": "https://{{domain}}:{{port}}/appt_request/",
						"description": "This is the method to accept an Appt Request."
					},
					"response": []
				},
				{
					"name": "ApptRequest - List",
					"request": {
						"method": "GET",
						"header": [
							{
								"key": "Authorization",
								"value": "Token {{token}}"
							}
						],
						"body": {
							"mode": "formdata",
							"formdata": [
								{
									"key": "first_name",
									"value": "Jack",
									"type": "text",
									"description": ""
								},
								{
									"key": "last_name",
									"value": "Sparrow",
									"type": "text",
									"description": ""
								},
								{
									"key": "emails[]",
									"value": "mike+7@nortoncrew.com",
									"type": "text",
									"description": ""
								},
								{
									"key": "emails[]",
									"value": "mike+8@nortoncrew.com",
									"type": "text",
									"description": ""
								},
								{
									"key": "primary_email",
									"value": "mike+7@nortoncrew.com",
									"type": "text",
									"description": ""
								},
								{
									"key": "phone_numbers[]",
									"value": "111-222-3333",
									"type": "text",
									"description": ""
								},
								{
									"key": "phone_numbers[]",
									"value": "222-333-4444",
									"type": "text",
									"description": ""
								},
								{
									"key": "primary_phone_number",
									"value": "111-222-3333",
									"type": "text",
									"description": ""
								},
								{
									"key": "addresses[]",
									"value": "123 Any Street, Some City, MD 22222",
									"type": "text",
									"description": ""
								},
								{
									"key": "addresses[]",
									"value": "321 Other Street, Some City, MD 22222",
									"type": "text",
									"description": ""
								},
								{
									"key": "primary_address",
									"value": "123 Any Street, Some City, MD 22222",
									"type": "text",
									"description": ""
								},
								{
									"key": "title",
									"value": "CEO",
									"type": "text",
									"description": ""
								},
								{
									"key": "company",
									"value": "Awesomeness",
									"type": "text",
									"description": ""
								}
							]
						},
						"url": "https://{{domain}}:{{port}}/appt_request/list",
						"description": "This is the method used to get a list of ApptRequests"
					},
					"response": []
				}
			]
		},
		{
			"name": "Availability",
			"description": "",
			"item": [
				{
					"name": "Availability - Get Slots",
					"request": {
						"method": "GET",
						"header": [
							{
								"key": "Authorization",
								"value": "Token {{token}}"
							}
						],
						"body": {
							"mode": "formdata",
							"formdata": [
								{
									"key": "first_name",
									"value": "Jack",
									"type": "text",
									"description": ""
								},
								{
									"key": "last_name",
									"value": "Sparrow",
									"type": "text",
									"description": ""
								},
								{
									"key": "emails[]",
									"value": "mike+7@nortoncrew.com",
									"type": "text",
									"description": ""
								},
								{
									"key": "emails[]",
									"value": "mike+8@nortoncrew.com",
									"type": "text",
									"description": ""
								},
								{
									"key": "primary_email",
									"value": "mike+7@nortoncrew.com",
									"type": "text",
									"description": ""
								},
								{
									"key": "phone_numbers[]",
									"value": "111-222-3333",
									"type": "text",
									"description": ""
								},
								{
									"key": "phone_numbers[]",
									"value": "222-333-4444",
									"type": "text",
									"description": ""
								},
								{
									"key": "primary_phone_number",
									"value": "111-222-3333",
									"type": "text",
									"description": ""
								},
								{
									"key": "addresses[]",
									"value": "123 Any Street, Some City, MD 22222",
									"type": "text",
									"description": ""
								},
								{
									"key": "addresses[]",
									"value": "321 Other Street, Some City, MD 22222",
									"type": "text",
									"description": ""
								},
								{
									"key": "primary_address",
									"value": "123 Any Street, Some City, MD 22222",
									"type": "text",
									"description": ""
								},
								{
									"key": "title",
									"value": "CEO",
									"type": "text",
									"description": ""
								},
								{
									"key": "company",
									"value": "Awesomeness",
									"type": "text",
									"description": ""
								}
							]
						},
						"url": {
							"raw": "https://{{domain}}:{{port}}/availability/?start=2017-06-01&end=2017-07-02",
							"protocol": "https",
							"host": [
								"{{domain}}"
							],
							"port": "{{port}}",
							"path": [
								"availability",
								""
							],
							"query": [
								{
									"key": "start",
									"value": "2017-06-01",
									"equals": true
								},
								{
									"key": "end",
									"value": "2017-07-02",
									"equals": true
								}
							]
						},
						"description": "This is the method to get a list of unavailable time slots."
					},
					"response": []
				}
			]
		},
		{
			"name": "Contact",
			"description": "",
			"item": [
				{
					"name": "Contact - Create",
					"request": {
						"method": "POST",
						"header": [
							{
								"key": "Authorization",
								"value": "Token {{token}}"
							},
							{
								"key": "Content-Type",
								"value": "application/json"
							}
						],
						"body": {
							"mode": "raw",
							"raw": "{\n  \"first_name\": \"Steve\",\n  \"last_name\": \"Thomas\",\n  \"emails\": [\n    \"steventhomas.us@gmail.com\"\n  ],\n  \"primary_email\": \"steventhomas.us@gmail.com\",\n  \"phone_numbers\": [\n    \"111-222-3334\"\n  ],\n  \"primary_phone_number\": \"111-222-3334\",\n  \"addresses\": [\n    \"123 Any Street, Some City, MD 22223\"\n  ],\n  \"primary_address\": \"123 Any Street, Some City, MD 22223\",\n  \"title\": \"CEO\",\n  \"company\": \"Bizintro\"\n}"
						},
						"url": "https://{{domain}}:{{port}}/contact/",
						"description": "This is the method to create a Contact."
					},
					"response": []
				},
				{
					"name": "Contact - Update",
					"request": {
						"method": "PUT",
						"header": [
							{
								"key": "Authorization",
								"value": "Token {{token}}"
							},
							{
								"key": "Content-Type",
								"value": "application/json"
							}
						],
						"body": {
							"mode": "raw",
							"raw": "{\n  \"first_name\": \"Jack\",\n  \"last_name\": \"Sparrow8\",\n  \"emails\": [\n    \"peter+15@nortoncrew.com\",\n    \"peter+16@nortoncrew.com\"\n  ],\n  \"primary_email\": \"peter+15@nortoncrew.com\",\n  \"phone_numbers\": [\n    \"111-222-3333\",\n    \"222-333-4444\"\n  ],\n  \"primary_phone_number\": \"111-222-3333\",\n  \"addresses\": [\n    \"123 Any Street, Some City, MD 22222\",\n    \"321 Other Street, Some City, MD 22222\"\n  ],\n  \"primary_address\": \"123 Any Street, Some City, MD 22222\",\n  \"title\": \"CEO\",\n  \"company\": \"Awesomeness!!!!\"\n}"
						},
						"url": "https://{{domain}}:{{port}}/contact/{{contact_id}}",
						"description": "This is the method to update a Contact."
					},
					"response": []
				},
				{
					"name": "Contact - Delete",
					"request": {
						"method": "DELETE",
						"header": [
							{
								"key": "Authorization",
								"value": "Token {{token}}"
							}
						],
						"body": {
							"mode": "formdata",
							"formdata": [
								{
									"key": "contact_id",
									"value": "688",
									"type": "text",
									"description": ""
								}
							]
						},
						"url": "https://{{domain}}:{{port}}/contact/{{contact_id}}",
						"description": "This is the method to delete a Contact."
					},
					"response": []
				},
				{
					"name": "Contact - Get",
					"request": {
						"method": "GET",
						"header": [
							{
								"key": "Authorization",
								"value": "Token {{token}}"
							}
						],
						"body": {
							"mode": "formdata",
							"formdata": [
								{
									"key": "first_name",
									"value": "Jack",
									"type": "text",
									"description": ""
								},
								{
									"key": "last_name",
									"value": "Sparrow",
									"type": "text",
									"description": ""
								},
								{
									"key": "emails[]",
									"value": "mike+7@nortoncrew.com",
									"type": "text",
									"description": ""
								},
								{
									"key": "emails[]",
									"value": "mike+8@nortoncrew.com",
									"type": "text",
									"description": ""
								},
								{
									"key": "primary_email",
									"value": "mike+7@nortoncrew.com",
									"type": "text",
									"description": ""
								},
								{
									"key": "phone_numbers[]",
									"value": "111-222-3333",
									"type": "text",
									"description": ""
								},
								{
									"key": "phone_numbers[]",
									"value": "222-333-4444",
									"type": "text",
									"description": ""
								},
								{
									"key": "primary_phone_number",
									"value": "111-222-3333",
									"type": "text",
									"description": ""
								},
								{
									"key": "addresses[]",
									"value": "123 Any Street, Some City, MD 22222",
									"type": "text",
									"description": ""
								},
								{
									"key": "addresses[]",
									"value": "321 Other Street, Some City, MD 22222",
									"type": "text",
									"description": ""
								},
								{
									"key": "primary_address",
									"value": "123 Any Street, Some City, MD 22222",
									"type": "text",
									"description": ""
								},
								{
									"key": "title",
									"value": "CEO",
									"type": "text",
									"description": ""
								},
								{
									"key": "company",
									"value": "Awesomeness",
									"type": "text",
									"description": ""
								},
								{
									"key": "bio",
									"value": "I am a rockstar",
									"type": "text",
									"description": ""
								}
							]
						},
						"url": "https://{{domain}}:{{port}}/contact/{{contact_id}}",
						"description": "This is the method to get a Contact."
					},
					"response": []
				},
				{
					"name": "Contact - Search",
					"request": {
						"method": "GET",
						"header": [
							{
								"key": "Authorization",
								"value": "Token {{token}}"
							}
						],
						"body": {
							"mode": "formdata",
							"formdata": [
								{
									"key": "first_name",
									"value": "Jack",
									"type": "text",
									"description": ""
								},
								{
									"key": "last_name",
									"value": "Sparrow",
									"type": "text",
									"description": ""
								},
								{
									"key": "emails[]",
									"value": "mike+7@nortoncrew.com",
									"type": "text",
									"description": ""
								},
								{
									"key": "emails[]",
									"value": "mike+8@nortoncrew.com",
									"type": "text",
									"description": ""
								},
								{
									"key": "primary_email",
									"value": "mike+7@nortoncrew.com",
									"type": "text",
									"description": ""
								},
								{
									"key": "phone_numbers[]",
									"value": "111-222-3333",
									"type": "text",
									"description": ""
								},
								{
									"key": "phone_numbers[]",
									"value": "222-333-4444",
									"type": "text",
									"description": ""
								},
								{
									"key": "primary_phone_number",
									"value": "111-222-3333",
									"type": "text",
									"description": ""
								},
								{
									"key": "addresses[]",
									"value": "123 Any Street, Some City, MD 22222",
									"type": "text",
									"description": ""
								},
								{
									"key": "addresses[]",
									"value": "321 Other Street, Some City, MD 22222",
									"type": "text",
									"description": ""
								},
								{
									"key": "primary_address",
									"value": "123 Any Street, Some City, MD 22222",
									"type": "text",
									"description": ""
								},
								{
									"key": "title",
									"value": "CEO",
									"type": "text",
									"description": ""
								},
								{
									"key": "company",
									"value": "Awesomeness",
									"type": "text",
									"description": ""
								},
								{
									"key": "bio",
									"value": "I am a rockstar",
									"type": "text",
									"description": ""
								}
							]
						},
						"url": "https://{{domain}}:{{port}}/contact/search/{{search_term}}",
						"description": "This is the method to get a Contact."
					},
					"response": []
				},
				{
					"name": "Contact - List",
					"request": {
						"method": "GET",
						"header": [
							{
								"key": "Authorization",
								"value": "Token {{token}}"
							}
						],
						"body": {
							"mode": "formdata",
							"formdata": [
								{
									"key": "first_name",
									"value": "Jack",
									"type": "text",
									"description": ""
								},
								{
									"key": "last_name",
									"value": "Sparrow",
									"type": "text",
									"description": ""
								},
								{
									"key": "emails[]",
									"value": "mike+7@nortoncrew.com",
									"type": "text",
									"description": ""
								},
								{
									"key": "emails[]",
									"value": "mike+8@nortoncrew.com",
									"type": "text",
									"description": ""
								},
								{
									"key": "primary_email",
									"value": "mike+7@nortoncrew.com",
									"type": "text",
									"description": ""
								},
								{
									"key": "phone_numbers[]",
									"value": "111-222-3333",
									"type": "text",
									"description": ""
								},
								{
									"key": "phone_numbers[]",
									"value": "222-333-4444",
									"type": "text",
									"description": ""
								},
								{
									"key": "primary_phone_number",
									"value": "111-222-3333",
									"type": "text",
									"description": ""
								},
								{
									"key": "addresses[]",
									"value": "123 Any Street, Some City, MD 22222",
									"type": "text",
									"description": ""
								},
								{
									"key": "addresses[]",
									"value": "321 Other Street, Some City, MD 22222",
									"type": "text",
									"description": ""
								},
								{
									"key": "primary_address",
									"value": "123 Any Street, Some City, MD 22222",
									"type": "text",
									"description": ""
								},
								{
									"key": "title",
									"value": "CEO",
									"type": "text",
									"description": ""
								},
								{
									"key": "company",
									"value": "Awesomeness",
									"type": "text",
									"description": ""
								},
								{
									"key": "bio",
									"value": "I am a rockstar",
									"type": "text",
									"description": ""
								}
							]
						},
						"url": "https://{{domain}}:{{port}}/contact/list",
						"description": "This is the method to get a list of Contacts"
					},
					"response": []
				},
				{
					"name": "Contact - Get Interactions",
					"request": {
						"method": "GET",
						"header": [
							{
								"key": "Authorization",
								"value": "Token {{token}}"
							}
						],
						"body": {
							"mode": "formdata",
							"formdata": [
								{
									"key": "first_name",
									"value": "Jack",
									"type": "text",
									"description": ""
								},
								{
									"key": "last_name",
									"value": "Sparrow",
									"type": "text",
									"description": ""
								},
								{
									"key": "emails[]",
									"value": "mike+7@nortoncrew.com",
									"type": "text",
									"description": ""
								},
								{
									"key": "emails[]",
									"value": "mike+8@nortoncrew.com",
									"type": "text",
									"description": ""
								},
								{
									"key": "primary_email",
									"value": "mike+7@nortoncrew.com",
									"type": "text",
									"description": ""
								},
								{
									"key": "phone_numbers[]",
									"value": "111-222-3333",
									"type": "text",
									"description": ""
								},
								{
									"key": "phone_numbers[]",
									"value": "222-333-4444",
									"type": "text",
									"description": ""
								},
								{
									"key": "primary_phone_number",
									"value": "111-222-3333",
									"type": "text",
									"description": ""
								},
								{
									"key": "addresses[]",
									"value": "123 Any Street, Some City, MD 22222",
									"type": "text",
									"description": ""
								},
								{
									"key": "addresses[]",
									"value": "321 Other Street, Some City, MD 22222",
									"type": "text",
									"description": ""
								},
								{
									"key": "primary_address",
									"value": "123 Any Street, Some City, MD 22222",
									"type": "text",
									"description": ""
								},
								{
									"key": "title",
									"value": "CEO",
									"type": "text",
									"description": ""
								},
								{
									"key": "company",
									"value": "Awesomeness",
									"type": "text",
									"description": ""
								},
								{
									"key": "bio",
									"value": "I am a rockstar",
									"type": "text",
									"description": ""
								}
							]
						},
						"url": "https://{{domain}}:{{port}}/contact/interactions/{{contact_id}}",
						"description": "This is the method to get a list of interactions with the given contact."
					},
					"response": []
				},
				{
					"name": "Contact - Get Source List",
					"request": {
						"method": "GET",
						"header": [
							{
								"key": "Authorization",
								"value": "Token {{token}}"
							}
						],
						"body": {
							"mode": "formdata",
							"formdata": [
								{
									"key": "first_name",
									"value": "Jack",
									"type": "text",
									"description": ""
								},
								{
									"key": "last_name",
									"value": "Sparrow",
									"type": "text",
									"description": ""
								},
								{
									"key": "emails[]",
									"value": "mike+7@nortoncrew.com",
									"type": "text",
									"description": ""
								},
								{
									"key": "emails[]",
									"value": "mike+8@nortoncrew.com",
									"type": "text",
									"description": ""
								},
								{
									"key": "primary_email",
									"value": "mike+7@nortoncrew.com",
									"type": "text",
									"description": ""
								},
								{
									"key": "phone_numbers[]",
									"value": "111-222-3333",
									"type": "text",
									"description": ""
								},
								{
									"key": "phone_numbers[]",
									"value": "222-333-4444",
									"type": "text",
									"description": ""
								},
								{
									"key": "primary_phone_number",
									"value": "111-222-3333",
									"type": "text",
									"description": ""
								},
								{
									"key": "addresses[]",
									"value": "123 Any Street, Some City, MD 22222",
									"type": "text",
									"description": ""
								},
								{
									"key": "addresses[]",
									"value": "321 Other Street, Some City, MD 22222",
									"type": "text",
									"description": ""
								},
								{
									"key": "primary_address",
									"value": "123 Any Street, Some City, MD 22222",
									"type": "text",
									"description": ""
								},
								{
									"key": "title",
									"value": "CEO",
									"type": "text",
									"description": ""
								},
								{
									"key": "company",
									"value": "Awesomeness",
									"type": "text",
									"description": ""
								},
								{
									"key": "bio",
									"value": "I am a rockstar",
									"type": "text",
									"description": ""
								}
							]
						},
						"url": "https://{{domain}}:{{port}}/contact/source_list",
						"description": "This is the method to get a list of sources for the current User's Contacts."
					},
					"response": []
				},
				{
					"name": "Contact - Import Contacts",
					"request": {
						"method": "POST",
						"header": [
							{
								"key": "Authorization",
								"value": "Token {{token}}"
							}
						],
						"body": {
							"mode": "formdata",
							"formdata": [
								{
									"key": "source",
									"value": "l",
									"description": "e|l|s|o",
									"type": "text"
								},
								{
									"key": "file",
									"description": "Connections.csv from LinkedIn",
									"type": "file",
									"src": "Connections.csv",
									"value": ""
								}
							]
						},
						"url": "https://{{domain}}:{{port}}/contact/import",
						"description": "This is the method to import a CSV of Contacts."
					},
					"response": []
				}
			]
		},
		{
			"name": "Exchange",
			"description": "",
			"item": [
				{
					"name": "Exchange - Create Account",
					"request": {
						"method": "POST",
						"header": [
							{
								"key": "Authorization",
								"value": "Token {{token}}"
							},
							{
								"key": "Content-Type",
								"value": "application/json"
							}
						],
						"body": {
							"mode": "raw",
							"raw": "{\n  \"username\": \"michael.norton@bizintro.com\",\n  \"password\": \"password\",\n  \"server\": \"m.google.com\"\n}"
						},
						"url": "https://{{domain}}:{{port}}/exchange/",
						"description": "This is the method to create an Exchange Account"
					},
					"response": []
				},
				{
					"name": "Exchange - Delete Account",
					"request": {
						"method": "DELETE",
						"header": [
							{
								"key": "Authorization",
								"value": "Token {{token}}"
							}
						],
						"body": {
							"mode": "raw",
							"raw": ""
						},
						"url": "https://{{domain}}:{{port}}/{{exchange_account_id}}",
						"description": "This is the method to remove an Exchange Account."
					},
					"response": []
				},
				{
					"name": "Exchange - Update Account",
					"request": {
						"method": "PUT",
						"header": [
							{
								"key": "Authorization",
								"value": "Token {{token}}"
							},
							{
								"key": "Content-Type",
								"value": "application/json"
							}
						],
						"body": {
							"mode": "raw",
							"raw": "{\n  \"username\": \"michael.norton@bizintro.com\",\n  \"password\": \"password\",\n  \"server\": \"m.google.com\"\n}"
						},
						"url": "https://{{domain}}:{{port}}/{{exchange_account_id}}",
						"description": "This is the method to update Account Details.\n"
					},
					"response": []
				},
				{
					"name": "Exchange - AutoDiscover",
					"request": {
						"method": "POST",
						"header": [
							{
								"key": "Authorization",
								"value": "Token {{token}}"
							},
							{
								"key": "Content-Type",
								"value": "application/json"
							}
						],
						"body": {
							"mode": "raw",
							"raw": "{\n  \"username\": \"michael.norton@bizintro.com\",\n  \"password\": \"password\"\n}"
						},
						"url": "https://{{domain}}:{{port}}/exchange/autodiscover",
						"description": "This is the method to autodiscover Exchange Server."
					},
					"response": []
				},
				{
					"name": "Exchange - Test Credentials",
					"request": {
						"method": "POST",
						"header": [
							{
								"key": "Authorization",
								"value": "Token {{token}}"
							},
							{
								"key": "Content-Type",
								"value": "application/json"
							}
						],
						"body": {
							"mode": "raw",
							"raw": "{\n  \"username\": \"michael.norton@bizintro.com\",\n  \"password\": \"password\",\n  \"server\": \"m.google.com\"\n}"
						},
						"url": "https://{{domain}}:{{port}}/exchange/test_credentials",
						"description": "This is the method to test Exchange Credentials."
					},
					"response": []
				}
			]
		},
		{
			"name": "Help",
			"description": "",
			"item": [
				{
					"name": "Help - Create",
					"request": {
						"method": "POST",
						"header": [
							{
								"key": "Authorization",
								"value": "Token {{token}}"
							},
							{
								"key": "Content-Type",
								"value": "application/json"
							}
						],
						"body": {
							"mode": "raw",
							"raw": "{\n  \"contact_id\": \"1430\",\n  \"recipient_email\": \"peter+15@nortoncrew.com\",\n  \"message\": \"This is the message for recipient A\"\n}"
						},
						"url": "https://{{domain}}:{{port}}/help/",
						"description": "This is the method to create an Offer of Help."
					},
					"response": []
				},
				{
					"name": "Help - Get",
					"request": {
						"method": "GET",
						"header": [
							{
								"key": "Authorization",
								"value": "Token {{token}}"
							}
						],
						"body": {
							"mode": "formdata",
							"formdata": [
								{
									"key": "first_name",
									"value": "Jack",
									"type": "text",
									"description": ""
								},
								{
									"key": "last_name",
									"value": "Sparrow",
									"type": "text",
									"description": ""
								},
								{
									"key": "emails[]",
									"value": "mike+7@nortoncrew.com",
									"type": "text",
									"description": ""
								},
								{
									"key": "emails[]",
									"value": "mike+8@nortoncrew.com",
									"type": "text",
									"description": ""
								},
								{
									"key": "primary_email",
									"value": "mike+7@nortoncrew.com",
									"type": "text",
									"description": ""
								},
								{
									"key": "phone_numbers[]",
									"value": "111-222-3333",
									"type": "text",
									"description": ""
								},
								{
									"key": "phone_numbers[]",
									"value": "222-333-4444",
									"type": "text",
									"description": ""
								},
								{
									"key": "primary_phone_number",
									"value": "111-222-3333",
									"type": "text",
									"description": ""
								},
								{
									"key": "addresses[]",
									"value": "123 Any Street, Some City, MD 22222",
									"type": "text",
									"description": ""
								},
								{
									"key": "addresses[]",
									"value": "321 Other Street, Some City, MD 22222",
									"type": "text",
									"description": ""
								},
								{
									"key": "primary_address",
									"value": "123 Any Street, Some City, MD 22222",
									"type": "text",
									"description": ""
								},
								{
									"key": "title",
									"value": "CEO",
									"type": "text",
									"description": ""
								},
								{
									"key": "company",
									"value": "Awesomeness",
									"type": "text",
									"description": ""
								},
								{
									"key": "bio",
									"value": "I am a rockstar",
									"type": "text",
									"description": ""
								}
							]
						},
						"url": "https://{{domain}}:{{port}}/help/{{help_uuid}}",
						"description": "This is the method to get details about an Offer of Help"
					},
					"response": []
				},
				{
					"name": "Help - List",
					"request": {
						"method": "GET",
						"header": [
							{
								"key": "Authorization",
								"value": "Token {{token}}"
							}
						],
						"body": {
							"mode": "formdata",
							"formdata": [
								{
									"key": "first_name",
									"value": "Jack",
									"type": "text",
									"description": ""
								},
								{
									"key": "last_name",
									"value": "Sparrow",
									"type": "text",
									"description": ""
								},
								{
									"key": "emails[]",
									"value": "mike+7@nortoncrew.com",
									"type": "text",
									"description": ""
								},
								{
									"key": "emails[]",
									"value": "mike+8@nortoncrew.com",
									"type": "text",
									"description": ""
								},
								{
									"key": "primary_email",
									"value": "mike+7@nortoncrew.com",
									"type": "text",
									"description": ""
								},
								{
									"key": "phone_numbers[]",
									"value": "111-222-3333",
									"type": "text",
									"description": ""
								},
								{
									"key": "phone_numbers[]",
									"value": "222-333-4444",
									"type": "text",
									"description": ""
								},
								{
									"key": "primary_phone_number",
									"value": "111-222-3333",
									"type": "text",
									"description": ""
								},
								{
									"key": "addresses[]",
									"value": "123 Any Street, Some City, MD 22222",
									"type": "text",
									"description": ""
								},
								{
									"key": "addresses[]",
									"value": "321 Other Street, Some City, MD 22222",
									"type": "text",
									"description": ""
								},
								{
									"key": "primary_address",
									"value": "123 Any Street, Some City, MD 22222",
									"type": "text",
									"description": ""
								},
								{
									"key": "title",
									"value": "CEO",
									"type": "text",
									"description": ""
								},
								{
									"key": "company",
									"value": "Awesomeness",
									"type": "text",
									"description": ""
								},
								{
									"key": "bio",
									"value": "I am a rockstar",
									"type": "text",
									"description": ""
								}
							]
						},
						"url": "https://{{domain}}:{{port}}/help/list",
						"description": "This is the method to get a list of Helps."
					},
					"response": []
				},
				{
					"name": "Help - Contacts For Help",
					"request": {
						"method": "GET",
						"header": [
							{
								"key": "Authorization",
								"value": "Token {{token}}"
							}
						],
						"body": {
							"mode": "formdata",
							"formdata": [
								{
									"key": "first_name",
									"value": "Jack",
									"type": "text",
									"description": ""
								},
								{
									"key": "last_name",
									"value": "Sparrow",
									"type": "text",
									"description": ""
								},
								{
									"key": "emails[]",
									"value": "mike+7@nortoncrew.com",
									"type": "text",
									"description": ""
								},
								{
									"key": "emails[]",
									"value": "mike+8@nortoncrew.com",
									"type": "text",
									"description": ""
								},
								{
									"key": "primary_email",
									"value": "mike+7@nortoncrew.com",
									"type": "text",
									"description": ""
								},
								{
									"key": "phone_numbers[]",
									"value": "111-222-3333",
									"type": "text",
									"description": ""
								},
								{
									"key": "phone_numbers[]",
									"value": "222-333-4444",
									"type": "text",
									"description": ""
								},
								{
									"key": "primary_phone_number",
									"value": "111-222-3333",
									"type": "text",
									"description": ""
								},
								{
									"key": "addresses[]",
									"value": "123 Any Street, Some City, MD 22222",
									"type": "text",
									"description": ""
								},
								{
									"key": "addresses[]",
									"value": "321 Other Street, Some City, MD 22222",
									"type": "text",
									"description": ""
								},
								{
									"key": "primary_address",
									"value": "123 Any Street, Some City, MD 22222",
									"type": "text",
									"description": ""
								},
								{
									"key": "title",
									"value": "CEO",
									"type": "text",
									"description": ""
								},
								{
									"key": "company",
									"value": "Awesomeness",
									"type": "text",
									"description": ""
								},
								{
									"key": "bio",
									"value": "I am a rockstar",
									"type": "text",
									"description": ""
								}
							]
						},
						"url": {
							"raw": "https://{{domain}}:{{port}}/help/contacts?help_uuid=",
							"protocol": "https",
							"host": [
								"{{domain}}"
							],
							"port": "{{port}}",
							"path": [
								"help",
								"contacts"
							],
							"query": [
								{
									"key": "help_uuid",
									"value": "",
									"equals": true,
									"description": "UUID of the Offer of Help"
								}
							]
						},
						"description": "This is the method to get a list of Contacts for this offer of Help"
					},
					"response": []
				},
				{
					"name": "Help - Accept",
					"request": {
						"method": "POST",
						"header": [
							{
								"key": "Authorization",
								"value": "Token {{token}}"
							},
							{
								"key": "Content-Type",
								"value": "application/x-www-form-urlencoded"
							}
						],
						"body": {
							"mode": "raw",
							"raw": "{\"uuid\": \"asdasdadasda\", \"contacts\": [{\"contact-id\": 685, \"reason\": \"Because it would be cool\"},{\"contact-id\": 686, \"reason\": \"Because it would be cool\"}]}"
						},
						"url": "https://{{domain}}:{{port}}/help/accept",
						"description": "This is the method to accept an offer of help."
					},
					"response": []
				},
				{
					"name": "Help - Decline Introduction",
					"request": {
						"method": "POST",
						"header": [
							{
								"key": "Authorization",
								"value": "Token {{token}}"
							},
							{
								"key": "Content-Type",
								"value": "application/json"
							}
						],
						"body": {
							"mode": "raw",
							"raw": "{\n  \"potential_intro_uuid\": \"\"\n}"
						},
						"url": "https://{{domain}}:{{port}}/help/decline_introduction",
						"description": "This is the method to decline making an introduction from an offer of help."
					},
					"response": []
				}
			]
		},
		{
			"name": "Introduction",
			"description": "",
			"item": [
				{
					"name": "Introduction - Create",
					"request": {
						"method": "POST",
						"header": [
							{
								"key": "Authorization",
								"value": "Token {{token}}"
							},
							{
								"key": "Content-Type",
								"value": "application/json"
							}
						],
						"body": {
							"mode": "raw",
							"raw": "{\n  \"contact_a_id\": \"1429\",\n  \"contact_b_id\": \"1430\",\n  \"recipient_a_email\": \"mike+9@nortoncrew.com\",\n  \"recipient_b_email\": \"peter+15@nortoncrew.com\",\n  \"message\": \"This is the message for recipient A\",\n  \"message2\": \"This is the message for recipient B\",\n  \"potential_intro_uuid\": \"\"\n}"
						},
						"url": "https://{{domain}}:{{port}}/introduction/",
						"description": "This is the method to create an Introduction"
					},
					"response": []
				},
				{
					"name": "Introduction - List",
					"request": {
						"method": "GET",
						"header": [
							{
								"key": "Authorization",
								"value": "Token {{token}}"
							}
						],
						"body": {
							"mode": "formdata",
							"formdata": [
								{
									"key": "first_name",
									"value": "Jack",
									"type": "text",
									"description": ""
								},
								{
									"key": "last_name",
									"value": "Sparrow",
									"type": "text",
									"description": ""
								},
								{
									"key": "emails[]",
									"value": "mike+7@nortoncrew.com",
									"type": "text",
									"description": ""
								},
								{
									"key": "emails[]",
									"value": "mike+8@nortoncrew.com",
									"type": "text",
									"description": ""
								},
								{
									"key": "primary_email",
									"value": "mike+7@nortoncrew.com",
									"type": "text",
									"description": ""
								},
								{
									"key": "phone_numbers[]",
									"value": "111-222-3333",
									"type": "text",
									"description": ""
								},
								{
									"key": "phone_numbers[]",
									"value": "222-333-4444",
									"type": "text",
									"description": ""
								},
								{
									"key": "primary_phone_number",
									"value": "111-222-3333",
									"type": "text",
									"description": ""
								},
								{
									"key": "addresses[]",
									"value": "123 Any Street, Some City, MD 22222",
									"type": "text",
									"description": ""
								},
								{
									"key": "addresses[]",
									"value": "321 Other Street, Some City, MD 22222",
									"type": "text",
									"description": ""
								},
								{
									"key": "primary_address",
									"value": "123 Any Street, Some City, MD 22222",
									"type": "text",
									"description": ""
								},
								{
									"key": "title",
									"value": "CEO",
									"type": "text",
									"description": ""
								},
								{
									"key": "company",
									"value": "Awesomeness",
									"type": "text",
									"description": ""
								}
							]
						},
						"url": "https://{{domain}}:{{port}}/introduction/list",
						"description": "This is the method used to get a list of Introductions"
					},
					"response": []
				},
				{
					"name": "Introduction - Manage",
					"request": {
						"method": "GET",
						"header": [
							{
								"key": "Authorization",
								"value": "Token {{token}}"
							}
						],
						"body": {
							"mode": "formdata",
							"formdata": [
								{
									"key": "first_name",
									"value": "Jack",
									"type": "text",
									"description": ""
								},
								{
									"key": "last_name",
									"value": "Sparrow",
									"type": "text",
									"description": ""
								},
								{
									"key": "emails[]",
									"value": "mike+7@nortoncrew.com",
									"type": "text",
									"description": ""
								},
								{
									"key": "emails[]",
									"value": "mike+8@nortoncrew.com",
									"type": "text",
									"description": ""
								},
								{
									"key": "primary_email",
									"value": "mike+7@nortoncrew.com",
									"type": "text",
									"description": ""
								},
								{
									"key": "phone_numbers[]",
									"value": "111-222-3333",
									"type": "text",
									"description": ""
								},
								{
									"key": "phone_numbers[]",
									"value": "222-333-4444",
									"type": "text",
									"description": ""
								},
								{
									"key": "primary_phone_number",
									"value": "111-222-3333",
									"type": "text",
									"description": ""
								},
								{
									"key": "addresses[]",
									"value": "123 Any Street, Some City, MD 22222",
									"type": "text",
									"description": ""
								},
								{
									"key": "addresses[]",
									"value": "321 Other Street, Some City, MD 22222",
									"type": "text",
									"description": ""
								},
								{
									"key": "primary_address",
									"value": "123 Any Street, Some City, MD 22222",
									"type": "text",
									"description": ""
								},
								{
									"key": "title",
									"value": "CEO",
									"type": "text",
									"description": ""
								},
								{
									"key": "company",
									"value": "Awesomeness",
									"type": "text",
									"description": ""
								}
							]
						},
						"url": "https://{{domain}}:{{port}}/introduction/manage",
						"description": "This is the method used to get a list of Introductions with corresponding Appts"
					},
					"response": []
				},
				{
					"name": "Introduction - Accept",
					"request": {
						"method": "POST",
						"header": [
							{
								"key": "Authorization",
								"value": "Token {{token}}"
							},
							{
								"key": "Content-Type",
								"value": "application/json"
							}
						],
						"body": {
							"mode": "raw",
							"raw": "{\n  \"intro_uuid\": \"e864804a-39fa-4cef-9380-66f452baeb27\",\n  \"contact_id\": \"1430\"\n}"
						},
						"url": "https://{{domain}}:{{port}}/introduction/accept",
						"description": "This is the call made after a user comes back to the site to accept an Introduction."
					},
					"response": []
				},
				{
					"name": "Introduction - Nudge",
					"request": {
						"method": "POST",
						"header": [
							{
								"key": "Authorization",
								"value": "Token {{token}}"
							},
							{
								"key": "Content-Type",
								"value": "application/json"
							}
						],
						"body": {
							"mode": "raw",
							"raw": "{\n  \"intro_uuid\": \"2192d5f6-c3c6-407f-ac77-c17f11f12254\"\n}"
						},
						"url": "https://{{domain}}:{{port}}/introduction/nudge",
						"description": "This is the call made to nudge the recipient of an Introduction."
					},
					"response": []
				}
			]
		},
		{
			"name": "Misc",
			"description": "",
			"item": [
				{
					"name": "Misc - Full Contact Webhook",
					"request": {
						"method": "POST",
						"header": [],
						"body": {
							"mode": "raw",
							"raw": ""
						},
						"url": "https://api.bizintro.com/misc/fcwebhook",
						"description": "This is the webhook FullContact calls to add information to contacts."
					},
					"response": []
				},
				{
					"name": "Misc - Job Status",
					"request": {
						"method": "GET",
						"header": [
							{
								"key": "Authorization",
								"value": "Token {{token}}"
							}
						],
						"body": {
							"mode": "formdata",
							"formdata": [
								{
									"key": "first_name",
									"value": "Jack",
									"type": "text",
									"description": ""
								},
								{
									"key": "last_name",
									"value": "Sparrow",
									"type": "text",
									"description": ""
								},
								{
									"key": "emails[]",
									"value": "mike+7@nortoncrew.com",
									"type": "text",
									"description": ""
								},
								{
									"key": "emails[]",
									"value": "mike+8@nortoncrew.com",
									"type": "text",
									"description": ""
								},
								{
									"key": "primary_email",
									"value": "mike+7@nortoncrew.com",
									"type": "text",
									"description": ""
								},
								{
									"key": "phone_numbers[]",
									"value": "111-222-3333",
									"type": "text",
									"description": ""
								},
								{
									"key": "phone_numbers[]",
									"value": "222-333-4444",
									"type": "text",
									"description": ""
								},
								{
									"key": "primary_phone_number",
									"value": "111-222-3333",
									"type": "text",
									"description": ""
								},
								{
									"key": "addresses[]",
									"value": "123 Any Street, Some City, MD 22222",
									"type": "text",
									"description": ""
								},
								{
									"key": "addresses[]",
									"value": "321 Other Street, Some City, MD 22222",
									"type": "text",
									"description": ""
								},
								{
									"key": "primary_address",
									"value": "123 Any Street, Some City, MD 22222",
									"type": "text",
									"description": ""
								},
								{
									"key": "title",
									"value": "CEO",
									"type": "text",
									"description": ""
								},
								{
									"key": "company",
									"value": "Awesomeness",
									"type": "text",
									"description": ""
								}
							]
						},
						"url": "https://api.bizintro.com/misc/jobstatus",
						"description": "This is the method to get the status of background jobs."
					},
					"response": []
				}
			]
		},
		{
			"name": "Profile",
			"description": "",
			"item": [
				{
					"name": "Profile - Update",
					"request": {
						"method": "PUT",
						"header": [
							{
								"key": "Authorization",
								"value": "Token {{token}}"
							},
							{
								"key": "Content-Type",
								"value": "application/json"
							}
						],
						"body": {
							"mode": "raw",
							"raw": "{\n  \"first_name\": \"Jack\",\n  \"last_name\": \"Sparrow4\",\n  \"phone_number\": \"111-222-3333\",\n  \"address\": \"123 Any Street, Some City, MD 22222\",\n  \"title\": \"CEO\",\n  \"company\": \"Awesomeness\",\n  \"summary\": \"I am the CEO of a cool company\",\n  \"linkedin_url\": \"\",\n  \"timezone\": \"America/New_York\",\n  \"signature\": \"Thanks\\n\\n--Pete\"\n}"
						},
						"url": "https://{{domain}}:{{port}}/profile/",
						"description": "This is the method to update your Profile."
					},
					"response": []
				},
				{
					"name": "Profile - Get",
					"request": {
						"method": "GET",
						"header": [
							{
								"key": "Authorization",
								"value": "Token {{token}}"
							}
						],
						"body": {
							"mode": "formdata",
							"formdata": [
								{
									"key": "first_name",
									"value": "Jack",
									"type": "text",
									"description": ""
								},
								{
									"key": "last_name",
									"value": "Sparrow",
									"type": "text",
									"description": ""
								},
								{
									"key": "emails[]",
									"value": "mike+7@nortoncrew.com",
									"type": "text",
									"description": ""
								},
								{
									"key": "emails[]",
									"value": "mike+8@nortoncrew.com",
									"type": "text",
									"description": ""
								},
								{
									"key": "primary_email",
									"value": "mike+7@nortoncrew.com",
									"type": "text",
									"description": ""
								},
								{
									"key": "phone_numbers[]",
									"value": "111-222-3333",
									"type": "text",
									"description": ""
								},
								{
									"key": "phone_numbers[]",
									"value": "222-333-4444",
									"type": "text",
									"description": ""
								},
								{
									"key": "primary_phone_number",
									"value": "111-222-3333",
									"type": "text",
									"description": ""
								},
								{
									"key": "addresses[]",
									"value": "123 Any Street, Some City, MD 22222",
									"type": "text",
									"description": ""
								},
								{
									"key": "addresses[]",
									"value": "321 Other Street, Some City, MD 22222",
									"type": "text",
									"description": ""
								},
								{
									"key": "primary_address",
									"value": "123 Any Street, Some City, MD 22222",
									"type": "text",
									"description": ""
								},
								{
									"key": "title",
									"value": "CEO",
									"type": "text",
									"description": ""
								},
								{
									"key": "company",
									"value": "Awesomeness",
									"type": "text",
									"description": ""
								},
								{
									"key": "bio",
									"value": "I am a rockstar",
									"type": "text",
									"description": ""
								}
							]
						},
						"url": "https://{{domain}}:{{port}}/profile/",
						"description": "This is the method to get your Profile."
					},
					"response": []
				},
				{
					"name": "Standing Availabilty - Get",
					"request": {
						"method": "GET",
						"header": [
							{
								"key": "Authorization",
								"value": "Token {{token}}"
							}
						],
						"body": {
							"mode": "formdata",
							"formdata": [
								{
									"key": "first_name",
									"value": "Jack",
									"type": "text",
									"description": ""
								},
								{
									"key": "last_name",
									"value": "Sparrow",
									"type": "text",
									"description": ""
								},
								{
									"key": "emails[]",
									"value": "mike+7@nortoncrew.com",
									"type": "text",
									"description": ""
								},
								{
									"key": "emails[]",
									"value": "mike+8@nortoncrew.com",
									"type": "text",
									"description": ""
								},
								{
									"key": "primary_email",
									"value": "mike+7@nortoncrew.com",
									"type": "text",
									"description": ""
								},
								{
									"key": "phone_numbers[]",
									"value": "111-222-3333",
									"type": "text",
									"description": ""
								},
								{
									"key": "phone_numbers[]",
									"value": "222-333-4444",
									"type": "text",
									"description": ""
								},
								{
									"key": "primary_phone_number",
									"value": "111-222-3333",
									"type": "text",
									"description": ""
								},
								{
									"key": "addresses[]",
									"value": "123 Any Street, Some City, MD 22222",
									"type": "text",
									"description": ""
								},
								{
									"key": "addresses[]",
									"value": "321 Other Street, Some City, MD 22222",
									"type": "text",
									"description": ""
								},
								{
									"key": "primary_address",
									"value": "123 Any Street, Some City, MD 22222",
									"type": "text",
									"description": ""
								},
								{
									"key": "title",
									"value": "CEO",
									"type": "text",
									"description": ""
								},
								{
									"key": "company",
									"value": "Awesomeness",
									"type": "text",
									"description": ""
								},
								{
									"key": "bio",
									"value": "I am a rockstar",
									"type": "text",
									"description": ""
								}
							]
						},
						"url": "https://{{domain}}:{{port}}/profile/standing_availability/",
						"description": "This is the method to get Standing Availability slots."
					},
					"response": []
				},
				{
					"name": "Standing Availability - Update",
					"request": {
						"method": "PUT",
						"header": [
							{
								"key": "Authorization",
								"value": "Token {{token}}"
							},
							{
								"key": "Content-Type",
								"value": "application/json"
							}
						],
						"body": {
							"mode": "raw",
							"raw": "[\n    {\n        \"start\": \"08:30\",\n        \"end\": \"10:30\",\n        \"day\": \"1\"\n    },\n    {\n        \"start\": \"08:30\",\n        \"end\": \"10:00\",\n        \"day\": \"2\"\n    },\n    {\n        \"start\": \"09:00\",\n        \"end\": \"12:30\",\n        \"day\": \"3\"\n    }\n]"
						},
						"url": "https://{{domain}}:{{port}}/profile/standing_availability/",
						"description": "This is the method to update your standing availability slots."
					},
					"response": []
				},
				{
					"name": "Profile - List Emails",
					"request": {
						"method": "GET",
						"header": [
							{
								"key": "Authorization",
								"value": "Token {{token}}"
							}
						],
						"body": {
							"mode": "formdata",
							"formdata": [
								{
									"key": "first_name",
									"value": "Jack",
									"type": "text",
									"description": ""
								},
								{
									"key": "last_name",
									"value": "Sparrow",
									"type": "text",
									"description": ""
								},
								{
									"key": "emails[]",
									"value": "mike+7@nortoncrew.com",
									"type": "text",
									"description": ""
								},
								{
									"key": "emails[]",
									"value": "mike+8@nortoncrew.com",
									"type": "text",
									"description": ""
								},
								{
									"key": "primary_email",
									"value": "mike+7@nortoncrew.com",
									"type": "text",
									"description": ""
								},
								{
									"key": "phone_numbers[]",
									"value": "111-222-3333",
									"type": "text",
									"description": ""
								},
								{
									"key": "phone_numbers[]",
									"value": "222-333-4444",
									"type": "text",
									"description": ""
								},
								{
									"key": "primary_phone_number",
									"value": "111-222-3333",
									"type": "text",
									"description": ""
								},
								{
									"key": "addresses[]",
									"value": "123 Any Street, Some City, MD 22222",
									"type": "text",
									"description": ""
								},
								{
									"key": "addresses[]",
									"value": "321 Other Street, Some City, MD 22222",
									"type": "text",
									"description": ""
								},
								{
									"key": "primary_address",
									"value": "123 Any Street, Some City, MD 22222",
									"type": "text",
									"description": ""
								},
								{
									"key": "title",
									"value": "CEO",
									"type": "text",
									"description": ""
								},
								{
									"key": "company",
									"value": "Awesomeness",
									"type": "text",
									"description": ""
								},
								{
									"key": "bio",
									"value": "I am a rockstar",
									"type": "text",
									"description": ""
								}
							]
						},
						"url": "https://{{domain}}:{{port}}/profile/email/list",
						"description": "This is the method to list your emails."
					},
					"response": []
				},
				{
					"name": "Profile - List Tours",
					"request": {
						"method": "GET",
						"header": [
							{
								"key": "Authorization",
								"value": "Token {{token}}"
							}
						],
						"body": {
							"mode": "formdata",
							"formdata": [
								{
									"key": "first_name",
									"value": "Jack",
									"type": "text",
									"description": ""
								},
								{
									"key": "last_name",
									"value": "Sparrow",
									"type": "text",
									"description": ""
								},
								{
									"key": "emails[]",
									"value": "mike+7@nortoncrew.com",
									"type": "text",
									"description": ""
								},
								{
									"key": "emails[]",
									"value": "mike+8@nortoncrew.com",
									"type": "text",
									"description": ""
								},
								{
									"key": "primary_email",
									"value": "mike+7@nortoncrew.com",
									"type": "text",
									"description": ""
								},
								{
									"key": "phone_numbers[]",
									"value": "111-222-3333",
									"type": "text",
									"description": ""
								},
								{
									"key": "phone_numbers[]",
									"value": "222-333-4444",
									"type": "text",
									"description": ""
								},
								{
									"key": "primary_phone_number",
									"value": "111-222-3333",
									"type": "text",
									"description": ""
								},
								{
									"key": "addresses[]",
									"value": "123 Any Street, Some City, MD 22222",
									"type": "text",
									"description": ""
								},
								{
									"key": "addresses[]",
									"value": "321 Other Street, Some City, MD 22222",
									"type": "text",
									"description": ""
								},
								{
									"key": "primary_address",
									"value": "123 Any Street, Some City, MD 22222",
									"type": "text",
									"description": ""
								},
								{
									"key": "title",
									"value": "CEO",
									"type": "text",
									"description": ""
								},
								{
									"key": "company",
									"value": "Awesomeness",
									"type": "text",
									"description": ""
								},
								{
									"key": "bio",
									"value": "I am a rockstar",
									"type": "text",
									"description": ""
								}
							]
						},
						"url": "https://{{domain}}:{{port}}/profile/tour/list",
						"description": "This is the method to list the tours the user has viewed."
					},
					"response": []
				},
				{
					"name": "Profile - Add Email",
					"request": {
						"method": "POST",
						"header": [
							{
								"key": "Authorization",
								"value": "Token {{token}}"
							},
							{
								"key": "Content-Type",
								"value": "application/json"
							}
						],
						"body": {
							"mode": "raw",
							"raw": "{\n  \"email\": \"peter+whatever@nortoncrew.com\"\n}"
						},
						"url": "https://{{domain}}:{{port}}/profile/email",
						"description": "This is the method to add an email to your profile."
					},
					"response": []
				},
				{
					"name": "Profile - Change Password",
					"request": {
						"method": "POST",
						"header": [
							{
								"key": "Authorization",
								"value": "Token {{token}}"
							},
							{
								"key": "Content-Type",
								"value": "application/json"
							}
						],
						"body": {
							"mode": "raw",
							"raw": "{\n  \"email\": \"peter+whatever@nortoncrew.com\"\n}"
						},
						"url": "https://{{domain}}:{{port}}/profile/email",
						"description": "This is the method to add an email to your profile."
					},
					"response": []
				},
				{
					"name": "Profile - Add Tour",
					"request": {
						"method": "POST",
						"header": [
							{
								"key": "Authorization",
								"value": "Token {{token}}"
							},
							{
								"key": "Content-Type",
								"value": "application/json"
							}
						],
						"body": {
							"mode": "raw",
							"raw": "{\n  \"tour_key\": \"thisisatest\"\n}"
						},
						"url": "https://{{domain}}:{{port}}/profile/email",
						"description": "This is the method to add a viewed tour to the profile."
					},
					"response": []
				}
			]
		},
		{
			"name": "Templates",
			"description": "",
			"item": [
				{
					"name": "Template - Update",
					"request": {
						"method": "PUT",
						"header": [
							{
								"key": "Authorization",
								"value": "Token {{token}}"
							},
							{
								"key": "Content-Type",
								"value": "application/json"
							}
						],
						"body": {
							"mode": "raw",
							"raw": "{\n  \"type\": \"\",\n  \"message\": \"\"\n}"
						},
						"url": "https://{{domain}}:{{port}}/template/",
						"description": "This is the method to update a Template."
					},
					"response": []
				},
				{
					"name": "Template - Get",
					"request": {
						"method": "GET",
						"header": [
							{
								"key": "Authorization",
								"value": "Token {{token}}"
							}
						],
						"body": {
							"mode": "formdata",
							"formdata": [
								{
									"key": "first_name",
									"value": "Jack",
									"type": "text",
									"description": ""
								},
								{
									"key": "last_name",
									"value": "Sparrow",
									"type": "text",
									"description": ""
								},
								{
									"key": "emails[]",
									"value": "mike+7@nortoncrew.com",
									"type": "text",
									"description": ""
								},
								{
									"key": "emails[]",
									"value": "mike+8@nortoncrew.com",
									"type": "text",
									"description": ""
								},
								{
									"key": "primary_email",
									"value": "mike+7@nortoncrew.com",
									"type": "text",
									"description": ""
								},
								{
									"key": "phone_numbers[]",
									"value": "111-222-3333",
									"type": "text",
									"description": ""
								},
								{
									"key": "phone_numbers[]",
									"value": "222-333-4444",
									"type": "text",
									"description": ""
								},
								{
									"key": "primary_phone_number",
									"value": "111-222-3333",
									"type": "text",
									"description": ""
								},
								{
									"key": "addresses[]",
									"value": "123 Any Street, Some City, MD 22222",
									"type": "text",
									"description": ""
								},
								{
									"key": "addresses[]",
									"value": "321 Other Street, Some City, MD 22222",
									"type": "text",
									"description": ""
								},
								{
									"key": "primary_address",
									"value": "123 Any Street, Some City, MD 22222",
									"type": "text",
									"description": ""
								},
								{
									"key": "title",
									"value": "CEO",
									"type": "text",
									"description": ""
								},
								{
									"key": "company",
									"value": "Awesomeness",
									"type": "text",
									"description": ""
								},
								{
									"key": "bio",
									"value": "I am a rockstar",
									"type": "text",
									"description": ""
								}
							]
						},
						"url": {
							"raw": "https://{{domain}}:{{port}}/template/?type=",
							"protocol": "https",
							"host": [
								"{{domain}}"
							],
							"port": "{{port}}",
							"path": [
								"template",
								""
							],
							"query": [
								{
									"key": "type",
									"value": "",
									"equals": true,
									"description": "help|intro|intro_secondary|appt_request\n"
								}
							]
						},
						"description": "This is the method to get a Template."
					},
					"response": []
				},
				{
					"name": "Template - List",
					"request": {
						"method": "GET",
						"header": [
							{
								"key": "Authorization",
								"value": "Token {{token}}"
							}
						],
						"body": {
							"mode": "formdata",
							"formdata": [
								{
									"key": "first_name",
									"value": "Jack",
									"type": "text",
									"description": ""
								},
								{
									"key": "last_name",
									"value": "Sparrow",
									"type": "text",
									"description": ""
								},
								{
									"key": "emails[]",
									"value": "mike+7@nortoncrew.com",
									"type": "text",
									"description": ""
								},
								{
									"key": "emails[]",
									"value": "mike+8@nortoncrew.com",
									"type": "text",
									"description": ""
								},
								{
									"key": "primary_email",
									"value": "mike+7@nortoncrew.com",
									"type": "text",
									"description": ""
								},
								{
									"key": "phone_numbers[]",
									"value": "111-222-3333",
									"type": "text",
									"description": ""
								},
								{
									"key": "phone_numbers[]",
									"value": "222-333-4444",
									"type": "text",
									"description": ""
								},
								{
									"key": "primary_phone_number",
									"value": "111-222-3333",
									"type": "text",
									"description": ""
								},
								{
									"key": "addresses[]",
									"value": "123 Any Street, Some City, MD 22222",
									"type": "text",
									"description": ""
								},
								{
									"key": "addresses[]",
									"value": "321 Other Street, Some City, MD 22222",
									"type": "text",
									"description": ""
								},
								{
									"key": "primary_address",
									"value": "123 Any Street, Some City, MD 22222",
									"type": "text",
									"description": ""
								},
								{
									"key": "title",
									"value": "CEO",
									"type": "text",
									"description": ""
								},
								{
									"key": "company",
									"value": "Awesomeness",
									"type": "text",
									"description": ""
								},
								{
									"key": "bio",
									"value": "I am a rockstar",
									"type": "text",
									"description": ""
								}
							]
						},
						"url": "https://{{domain}}:{{port}}/template/list",
						"description": "This is the method to get a Template."
					},
					"response": []
				}
			]
		}
	]
}